{
  "revision_id": "e3fe19715e2e8ebe52de04b93ac384efb8ac4989bf8cec0eeaa83ff0867d810e",
  "name": "charlie_server",
  "run_list": [
    "recipe[mongodb::default]",
    "recipe[apache_tomcat::default]"
  ],
  "included_policy_locks": [

  ],
  "cookbook_locks": {
    "apache_tomcat": {
      "version": "0.1.0",
      "identifier": "040759630ec9b16e3a081890049a63115dec5e28",
      "dotted_decimal_identifier": "1133980402239921.31026053884413082.108926241365544",
      "source": "../cookbooks/apache_tomcat",
      "cache_key": null,
      "scm_info": {
        "scm": "git",
        "remote": "https://talha-ahmad@bitbucket.org/talha-ahmad/jenkins_demo.git",
        "revision": "341291d979c1b4af1a60e08e9da935036c34c489",
        "working_tree_clean": true,
        "published": true,
        "synchronized_remote_branches": [
          "origin/HEAD -> origin/master",
          "origin/master"
        ]
      },
      "source_options": {
        "path": "../cookbooks/apache_tomcat"
      }
    },
    "mongodb": {
      "version": "0.1.0",
      "identifier": "a974e254a096b0f5ca3d5c5f7b3f19a1fd031d06",
      "dotted_decimal_identifier": "47697786495342256.69183734185687871.28183525268742",
      "source": "../cookbooks/mongodb",
      "cache_key": null,
      "scm_info": {
        "scm": "git",
        "remote": "https://talha-ahmad@bitbucket.org/talha-ahmad/jenkins_demo.git",
        "revision": "341291d979c1b4af1a60e08e9da935036c34c489",
        "working_tree_clean": true,
        "published": true,
        "synchronized_remote_branches": [
          "origin/HEAD -> origin/master",
          "origin/master"
        ]
      },
      "source_options": {
        "path": "../cookbooks/mongodb"
      }
    }
  },
  "default_attributes": {

  },
  "override_attributes": {

  },
  "solution_dependencies": {
    "Policyfile": [
      [
        "apache_tomcat",
        ">= 0.0.0"
      ],
      [
        "mongodb",
        ">= 0.0.0"
      ]
    ],
    "dependencies": {
      "apache_tomcat (0.1.0)": [

      ],
      "mongodb (0.1.0)": [

      ]
    }
  }
}
